…
                TRPTRANS %in% c(15, 16)~ 'rail',
                TRPTRANS %in% c(17) ~ 'taxi',
                TRPTRANS %in% c("03","04","05","06","08","09","18") ~ 'hv', 
                TRUE ~ "other")
      )
summary <- df_trippub |>
    group_by(TRPTRANS, mode_ATB) |>
  summarise(countN = n() ,
            Nmissing = sum(is.na(mode_ATB)),
    .groups = "drop") |> 
  arrange(TRPTRANS)   
summary
```

    ## # A tibble: 24 × 4
    ##    TRPTRANS mode_ATB countN Nmissing
    ##    <chr>    <chr>     <int>    <int>
    ##  1 -7       other         2        0
    ##  2 -8       other        13        0
    ##  3 -9       other         1        0
    ##  4 01       walk      81288        0
    ##  5 02       bike       8034        0
    ##  6 03       hv       396931        0
    ##  7 04       hv       229466        0
    ##  8 05       hv        60463        0
    ##  9 06       hv       108303        0
    ## 10 07       other       826        0
    ## # ℹ 14 more rows
…
This will tell us the relationship between the files. It looks like hhct
has more observations of households than trippub has households:

``` r
# same unique?
df_trippub |>
  group_by(HOUSEID) |> 
  summarise(n = n(),
            n_distinct(HOUSEID))
```

    ## # A tibble: 117,222 × 3
    ##     HOUSEID     n `n_distinct(HOUSEID)`
    ##       <dbl> <int>                 <int>
    ##  1 30000007     6                     1
    ##  2 30000008     2                     1
    ##  3 30000012     9                     1
    ##  4 30000019     4                     1
    ##  5 30000029    10                     1
    ##  6 30000039    11                     1
    ##  7 30000041     6                     1
    ##  8 30000062     6                     1
    ##  9 30000082    12                     1
    ## 10 30000085     6                     1
    ## # ℹ 117,212 more rows

## Merge trippub to tripct

This looks like it works perfectly – as it should:

``` r
df_temp1 <- full_join(df_trippub,df_tripct,
                     by=c("HOUSEID","PERSONID","TDTRPNUM"))
df_temp1
```

    ## # A tibble: 923,572 × 122
    ##     HOUSEID PERSONID TDTRPNUM STRTTIME ENDTIME TRVLCMIN TRPMILES TRPTRANS
    ##       <dbl> <chr>    <chr>    <chr>    <chr>      <dbl>    <dbl> <chr>   
    ##  1 30000007 01       01       1000     1015          15     5.24 03      
    ##  2 30000007 01       02       1510     1530          20     5.15 03      
    ##  3 30000007 02       01       0700     0900         120    84.0  06      
    ##  4 30000007 02       02       1800     2030         150    81.6  06      
    ##  5 30000007 03       01       0845     0900          15     2.25 03      
    ##  6 30000007 03       02       1430     1445          15     2.24 03      
    ##  7 30000008 01       01       1115     1130          15     8.02 06      
    ##  8 30000008 01       02       2330     2340          10     8.02 06      
    ##  9 30000012 01       01       0550     0605          15     3.40 04      
    ## 10 30000012 01       02       0700     0715          15     3.40 04      
    ## # ℹ 923,562 more rows
    ## # ℹ 114 more variables: TRPACCMP <dbl>, TRPHHACC <dbl>, VEHID <chr>,
    ## #   TRWAITTM <dbl>, NUMTRANS <dbl>, TRACCTM <dbl>, DROP_PRK <chr>,
    ## #   TREGRTM <dbl>, WHODROVE <chr>, WHYFROM <chr>, LOOP_TRIP <chr>,
    ## #   TRPHHVEH <chr>, HHMEMDRV <chr>, HH_ONTD <dbl>, NONHHCNT <dbl>,
    ## #   NUMONTRP <dbl>, PSGR_FLG <chr>, PUBTRANS <chr>, TRIPPURP <chr>,
    ## #   DWELTIME <dbl>, TDWKND <chr>, VMT_MILE <dbl>, DRVR_FLG <chr>, …

## Merge that to hhct with full join

``` r
df_temp2 <- full_join(df_temp1,df_hhct,
                     by=c("HOUSEID"))
df_temp2
```

    ## # A tibble: 936,046 × 127
    ##     HOUSEID PERSONID TDTRPNUM STRTTIME ENDTIME TRVLCMIN TRPMILES TRPTRANS
    ##       <dbl> <chr>    <chr>    <chr>    <chr>      <dbl>    <dbl> <chr>   
    ##  1 30000007 01       01       1000     1015          15     5.24 03      
    ##  2 30000007 01       02       1510     1530          20     5.15 03      
    ##  3 30000007 02       01       0700     0900         120    84.0  06      
    ##  4 30000007 02       02       1800     2030         150    81.6  06      
    ##  5 30000007 03       01       0845     0900          15     2.25 03      
    ##  6 30000007 03       02       1430     1445          15     2.24 03      
    ##  7 30000008 01       01       1115     1130          15     8.02 06      
    ##  8 30000008 01       02       2330     2340          10     8.02 06      
    ##  9 30000012 01       01       0550     0605          15     3.40 04      
    ## 10 30000012 01       02       0700     0715          15     3.40 04      
    ## # ℹ 936,036 more rows
    ## # ℹ 119 more variables: TRPACCMP <dbl>, TRPHHACC <dbl>, VEHID <chr>,
    ## #   TRWAITTM <dbl>, NUMTRANS <dbl>, TRACCTM <dbl>, DROP_PRK <chr>,
    ## #   TREGRTM <dbl>, WHODROVE <chr>, WHYFROM <chr>, LOOP_TRIP <chr>,
    ## #   TRPHHVEH <chr>, HHMEMDRV <chr>, HH_ONTD <dbl>, NONHHCNT <dbl>,
    ## #   NUMONTRP <dbl>, PSGR_FLG <chr>, PUBTRANS <chr>, TRIPPURP <chr>,
    ## #   DWELTIME <dbl>, TDWKND <chr>, VMT_MILE <dbl>, DRVR_FLG <chr>, …
…
### Create Senior

``` r
df_temp9 %>%
  group_by(R_AGE_IMP) %>%
  summarise(n = n())
```

    ## # A tibble: 86 × 2
    ##    R_AGE_IMP     n
    ##        <dbl> <int>
    ##  1         5  7020
    ##  2         6  6896
    ##  3         7  6944
    ##  4         8  7345
    ##  5         9  7405
    ##  6        10  7556
    ##  7        11  7257
    ##  8        12  7511
    ##  9        13  7133
    ## 10        14  6836
    ## # ℹ 76 more rows
…
