…
## Collapse

Collapse by type unit etc

### TODO CHANGE to summary instead of through count)

``` r
df_collapsed <- df_trips_only_small |>
    count(origin_microXgeo2types_ATB,dest_microXgeo2types_ATB,
          trip_purpose_small_ATB,start_time_bin_ATB,user_class_ATB,distance_bin_class_ATB,
          mode_ATB)
df_collapsed
```

    ## # A tibble: 44,443 × 8
    ##    origin_microXgeo2types_ATB dest_microXgeo2types_ATB trip_purpose_small_ATB
    ##    <chr>                      <chr>                    <chr>                 
    ##  1 1_AB                       1_AB                     home                  
    ##  2 1_AB                       1_AB                     home                  
    ##  3 1_AB                       1_AB                     home                  
    ##  4 1_AB                       1_AB                     home                  
    ##  5 1_AB                       1_AB                     home                  
    ##  6 1_AB                       1_AB                     home                  
    ##  7 1_AB                       1_AB                     home                  
    ##  8 1_AB                       1_AB                     home                  
    ##  9 1_AB                       1_AB                     home                  
    ## 10 1_AB                       1_AB                     home                  
    ## # ℹ 44,433 more rows
    ## # ℹ 5 more variables: start_time_bin_ATB <chr>, user_class_ATB <chr>,
    ## #   distance_bin_class_ATB <fct>, mode_ATB <chr>, n <int>

## Then widen

``` r
df_collapsed_wide <- df_collapsed  %>% 
   pivot_wider(
    names_from = mode_ATB,
    values_from = n
  )
df_collapsed_wide
```

    ## # A tibble: 28,271 × 13
    ##    origin_microXgeo2types_ATB dest_microXgeo2types_ATB trip_purpose_small_ATB
    ##    <chr>                      <chr>                    <chr>                 
    ##  1 1_AB                       1_AB                     home                  
    ##  2 1_AB                       1_AB                     home                  
    ##  3 1_AB                       1_AB                     home                  
    ##  4 1_AB                       1_AB                     home                  
    ##  5 1_AB                       1_AB                     home                  
    ##  6 1_AB                       1_AB                     home                  
    ##  7 1_AB                       1_AB                     home                  
    ##  8 1_AB                       1_AB                     home                  
    ##  9 1_AB                       1_AB                     home                  
    ## 10 1_AB                       1_AB                     home                  
    ## # ℹ 28,261 more rows
    ## # ℹ 10 more variables: start_time_bin_ATB <chr>, user_class_ATB <chr>,
    ## #   distance_bin_class_ATB <fct>, bike <int>, bus <int>, hv <int>, rail <int>,
    ## #   taxi <int>, walk <int>, other <int>
…
