…
    Rows: 244 Columns: 8
    ── Column specification ────────────────────────────────────────────────────────
    Delimiter: ","
    chr (6): Name, Type, Label, HH, PER, VEH
    dbl (1): Length
    lgl (1): TRIP

    ℹ Use `spec()` to retrieve the full column specification for this data.
    ℹ Specify the column types or set `show_col_types = FALSE` to quiet this message.

``` r
dictionary_v1_2 
```

    # A tibble: 244 × 8
       Label                              Name  Type  Length HH    PER   VEH   TRIP 
       <chr>                              <chr> <chr>  <dbl> <chr> <chr> <chr> <lgl>
     1 Alternative Mode of Transportatio… ALT_… C          2 <NA>  P     <NA>  NA   
     2 Alternative Mode of Transportatio… ALT_… C          2 <NA>  P     <NA>  NA   
     3 Alternative Mode of Transportatio… ALT_… C          2 <NA>  P     <NA>  NA   
     4 Self-reported annualized mile est… ANNM… N          6 <NA>  <NA>  V     NA   
     5 Best estimate of annual miles      BEST… N          8 <NA>  <NA>  V     NA   
     6 Flag any edits/adjustments to BES… BEST… C          2 <NA>  <NA>  V     NA   
     7 How BESTMILE was computed          BEST… C          2 <NA>  <NA>  V     NA   
     8 Flag identifying BESTMILE outlier… BEST… C          2 <NA>  <NA>  V     NA   
     9 Frequency of Bicycle Use for Trav… BIKE  C          2 H     <NA>  <NA>  NA   
    10 Bicycle to Reduce Financial Burde… BIKE… C          2 H     <NA>  <NA>  NA   
    # ℹ 234 more rows
…
##### the distinct values

``` r
df_trips_only_small %>% 
  distinct(origin_geoXmicrotype_ATB) 
```

    # A tibble: 37 × 1
       origin_geoXmicrotype_ATB
       <chr>                   
     1 E_4                     
     2 C_3                     
     3 E_5                     
     4 A_5                     
     5 A_4                     
     6 B_1                     
     7 B_4                     
     8 B_5                     
     9 B_2                     
    10 F_5                     
    # ℹ 27 more rows

``` r
df_trips_only_small %>% 
  distinct(dest_geoXmicrotype_ATB) 
```

    # A tibble: 37 × 1
       dest_geoXmicrotype_ATB
       <chr>                 
     1 E_4                   
     2 C_3                   
     3 E_5                   
     4 A_4                   
     5 A_5                   
     6 B_4                   
     7 B_1                   
     8 B_2                   
     9 B_5                   
    10 F_5                   
    # ℹ 27 more rows

``` r
df_trips_only_small %>% 
  distinct(hh_geoXmicrotype_ATB) 
```

    # A tibble: 37 × 1
       hh_geoXmicrotype_ATB
       <chr>               
     1 E_4                 
     2 A_5                 
     3 B_1                 
     4 B_5                 
     5 F_5                 
     6 B_2                 
     7 C_6                 
     8 B_4                 
     9 A_1                 
    10 C_5                 
    # ℹ 27 more rows
…
#### how many combinatorials

distinct mode X trip purpose

``` r
summary <- df_trips_only_small |>
  group_by(mode_ATB,trip_purpose_ATB) %>% 
  summarise("Number Obs" = n(),
            across(contains("_ATB"),~n_distinct(.x),.names = "{.col} distinct"),
    .groups = "drop")
summary
```

    # A tibble: 63 × 16
       mode_ATB trip_purpose_ATB `Number Obs` `start_time_bin_ATB distinct`
       <chr>    <chr>                   <int>                         <int>
     1 bike     home                     3420                             3
     2 bike     meals                     349                             3
     3 bike     medical                    39                             2
     4 bike     other                     199                             3
     5 bike     school                    395                             3
     6 bike     shopping                  851                             3
     7 bike     social                   1754                             3
     8 bike     transp_someone            122                             3
     9 bike     work                      905                             3
    10 bus      home                     7493                             3
    # ℹ 53 more rows
    # ℹ 12 more variables: `orig_fips11_ATB distinct` <int>,
    #   `dest_fips11_ATB distinct` <int>, `hh_fips11_ATB distinct` <int>,
    #   `origin_geotype_ATB distinct` <int>, `origin_microtype_ATB distinct` <int>,
    #   `origin_geoXmicrotype_ATB distinct` <int>,
    #   `dest_geotype_ATB distinct` <int>, `dest_microtype_ATB distinct` <int>,
    #   `dest_geoXmicrotype_ATB distinct` <int>, `hh_geotype_ATB distinct` <int>, …
…
##### distinct origin destination

``` r
df_trips_only_small %>% 
  count(origin_geoXmicrotype_ATB,dest_geoXmicrotype_ATB) %>% 
  pivot_wider(names_from = dest_geoXmicrotype_ATB,values_from = n)
```

    # A tibble: 37 × 38
       origin_geoXmicrotype_…¹   A_1   A_2   A_3   A_4   A_5   A_6   B_1   B_2   B_3
       <chr>                   <int> <int> <int> <int> <int> <int> <int> <int> <int>
     1 A_1                     23776  6717  5960   827  1367   147    33    89    80
     2 A_2                      6786 43551 16508  3862  9385   237    51   138   155
     3 A_3                      5854 16606 26128  3125  7765   202    46   159   244
     4 A_4                       842  3853  3154  7346  3177    91    15    25    96
     5 A_5                      1415  9397  7695  3202 21109   361    40   122   117
     6 A_6                       152   221   184    91   371   645     5    18    28
     7 B_1                        36    61    38    15    24     5 11327  7891  4330
     8 B_2                        81   125   185    30   130    14  7841 48307 14409
     9 B_3                        97   121   249    95   151    25  4301 14517 23096
    10 B_4                        36    79   135   117    63     9  1038  3817  3351
    # ℹ 27 more rows
    # ℹ abbreviated name: ¹​origin_geoXmicrotype_ATB
    # ℹ 28 more variables: B_4 <int>, B_5 <int>, B_6 <int>, C_1 <int>, C_2 <int>,
    #   C_3 <int>, C_4 <int>, C_5 <int>, C_6 <int>, D_5 <int>, D_6 <int>,
    #   E_2 <int>, E_6 <int>, F_1 <int>, F_2 <int>, F_3 <int>, F_4 <int>,
    #   F_5 <int>, F_6 <int>, `NA` <int>, D_2 <int>, D_3 <int>, D_4 <int>,
    #   E_4 <int>, E_5 <int>, D_1 <int>, E_3 <int>, E_1 <int>
…
``` r
df_trips_only_small %>% 
  count(origin_geoXmicrotype_ATB,dest_geoXmicrotype_ATB) 
```

    # A tibble: 1,094 × 3
       origin_geoXmicrotype_ATB dest_geoXmicrotype_ATB     n
       <chr>                    <chr>                  <int>
     1 A_1                      A_1                    23776
     2 A_1                      A_2                     6717
     3 A_1                      A_3                     5960
     4 A_1                      A_4                      827
     5 A_1                      A_5                     1367
     6 A_1                      A_6                      147
     7 A_1                      B_1                       33
     8 A_1                      B_2                       89
     9 A_1                      B_3                       80
    10 A_1                      B_4                       38
    # ℹ 1,084 more rows
…
    [1] 1296

``` r
summary
```

    # A tibble: 37 × 16
       origin_geoXmicrotype_ATB `Number Obs` `mode_ATB distinct`
       <chr>                           <int>               <int>
     1 A_1                             39466                   7
     2 A_2                             81593                   7
     3 A_3                             61463                   7
     4 A_4                             19131                   7
     5 A_5                             44675                   7
     6 A_6                              1961                   7
     7 B_1                             28130                   7
     8 B_2                             89951                   7
     9 B_3                             56005                   7
    10 B_4                             25133                   7
    # ℹ 27 more rows
    # ℹ 13 more variables: `trip_purpose_ATB distinct` <int>,
    #   `start_time_bin_ATB distinct` <int>, `orig_fips11_ATB distinct` <int>,
    #   `dest_fips11_ATB distinct` <int>, `hh_fips11_ATB distinct` <int>,
    #   `origin_geotype_ATB distinct` <int>, `origin_microtype_ATB distinct` <int>,
    #   `dest_geotype_ATB distinct` <int>, `dest_microtype_ATB distinct` <int>,
    #   `dest_geoXmicrotype_ATB distinct` <int>, `hh_geotype_ATB distinct` <int>, …
…
    [1] 1296

``` r
summary
```

    # A tibble: 1,094 × 16
       origin_geoXmicrotype_ATB dest_geoXmicrotype_ATB `Number Obs`
       <chr>                    <chr>                         <int>
     1 A_1                      A_1                           23776
     2 A_1                      A_2                            6717
     3 A_1                      A_3                            5960
     4 A_1                      A_4                             827
     5 A_1                      A_5                            1367
     6 A_1                      A_6                             147
     7 A_1                      B_1                              33
     8 A_1                      B_2                              89
     9 A_1                      B_3                              80
    10 A_1                      B_4                              38
    # ℹ 1,084 more rows
    # ℹ 13 more variables: `mode_ATB distinct` <int>,
    #   `trip_purpose_ATB distinct` <int>, `start_time_bin_ATB distinct` <int>,
    #   `orig_fips11_ATB distinct` <int>, `dest_fips11_ATB distinct` <int>,
    #   `hh_fips11_ATB distinct` <int>, `origin_geotype_ATB distinct` <int>,
    #   `origin_microtype_ATB distinct` <int>, `dest_geotype_ATB distinct` <int>,
    #   `dest_microtype_ATB distinct` <int>, `hh_geotype_ATB distinct` <int>, …
…
``` r
df_trips_only_small <- df_trips_only_small |>
  mutate(onePerObs = 1)
```

``` r
df_trips_only_small_wide <- df_trips_only_small  |>
  group_by(origin_geoXmicrotype_ATB,dest_geoXmicrotype_ATB) %>% 
  summarise("Number Obs" = n(),
            across(contains("_ATB"),~n_distinct(.x),.names = "{.col}"),
    .groups = "drop")
df_trips_only_small_wide
```

    # A tibble: 1,094 × 16
       origin_geoXmicrotype_ATB dest_geoXmicrotype_ATB `Number Obs` mode_ATB
       <chr>                    <chr>                         <int>    <int>
     1 A_1                      A_1                           23776        7
     2 A_1                      A_2                            6717        7
     3 A_1                      A_3                            5960        7
     4 A_1                      A_4                             827        7
     5 A_1                      A_5                            1367        7
     6 A_1                      A_6                             147        6
     7 A_1                      B_1                              33        4
     8 A_1                      B_2                              89        5
     9 A_1                      B_3                              80        4
    10 A_1                      B_4                              38        4
    # ℹ 1,084 more rows
    # ℹ 12 more variables: trip_purpose_ATB <int>, start_time_bin_ATB <int>,
    #   orig_fips11_ATB <int>, dest_fips11_ATB <int>, hh_fips11_ATB <int>,
    #   origin_geotype_ATB <int>, origin_microtype_ATB <int>,
    #   dest_geotype_ATB <int>, dest_microtype_ATB <int>, hh_geotype_ATB <int>,
    #   hh_microtype_ATB <int>, hh_geoXmicrotype_ATB <int>

``` r
df_trips_only_small_wide  %>% 
  pivot_wider(
    names_from = mode_ATB,
    values_from = "Number Obs",
    values_fn = sum
  )
```

    # A tibble: 1,094 × 21
       origin_geoXmicrotype_ATB dest_geoXmicrotype_ATB trip_purpose_ATB
       <chr>                    <chr>                             <int>
     1 A_1                      A_1                                   9
     2 A_1                      A_2                                   9
     3 A_1                      A_3                                   9
     4 A_1                      A_4                                   9
     5 A_1                      A_5                                   9
     6 A_1                      A_6                                   9
     7 A_1                      B_1                                   8
     8 A_1                      B_2                                   9
     9 A_1                      B_3                                   8
    10 A_1                      B_4                                   7
    # ℹ 1,084 more rows
    # ℹ 18 more variables: start_time_bin_ATB <int>, orig_fips11_ATB <int>,
    #   dest_fips11_ATB <int>, hh_fips11_ATB <int>, origin_geotype_ATB <int>,
    #   origin_microtype_ATB <int>, dest_geotype_ATB <int>,
    #   dest_microtype_ATB <int>, hh_geotype_ATB <int>, hh_microtype_ATB <int>,
    #   hh_geoXmicrotype_ATB <int>, `7` <int>, `6` <int>, `4` <int>, `5` <int>,
    #   `2` <int>, `1` <int>, `3` <int>

``` r
df_trips_only_small_wide
```

    # A tibble: 1,094 × 16
       origin_geoXmicrotype_ATB dest_geoXmicrotype_ATB `Number Obs` mode_ATB
       <chr>                    <chr>                         <int>    <int>
     1 A_1                      A_1                           23776        7
     2 A_1                      A_2                            6717        7
     3 A_1                      A_3                            5960        7
     4 A_1                      A_4                             827        7
     5 A_1                      A_5                            1367        7
     6 A_1                      A_6                             147        6
     7 A_1                      B_1                              33        4
     8 A_1                      B_2                              89        5
     9 A_1                      B_3                              80        4
    10 A_1                      B_4                              38        4
    # ℹ 1,084 more rows
    # ℹ 12 more variables: trip_purpose_ATB <int>, start_time_bin_ATB <int>,
    #   orig_fips11_ATB <int>, dest_fips11_ATB <int>, hh_fips11_ATB <int>,
    #   origin_geotype_ATB <int>, origin_microtype_ATB <int>,
    #   dest_geotype_ATB <int>, dest_microtype_ATB <int>, hh_geotype_ATB <int>,
    #   hh_microtype_ATB <int>, hh_geoXmicrotype_ATB <int>
…
### basic

how many trips in each state

``` r
summary_table <- df_trips_only |> 
  group_by(ORIG_ST) |>
  summarise(   
    Ntrips = n(),
    .groups = "drop")
summary_table
```

    # A tibble: 55 × 2
       ORIG_ST Ntrips
       <chr>    <int>
     1 -9           4
     2 01        2446
     3 02        1784
     4 04       19568
     5 05        1497
     6 06      183392
     7 08        4285
     8 09        2318
     9 10        1978
    10 11        2099
    # ℹ 45 more rows
…
